Configuring jvm-0.4.2...
Preprocessing library for jvm-0.4.2..
Building library for jvm-0.4.2..
[1 of 1] Compiling Language.Java    ( src/Language/Java.hs, .stack-work/dist/x86_64-linux-tinfo6/Cabal-2.0.1.0/build/Language/Java.o )
Installing library in /home/tylerwbrown/Code/Play/Languages/Haskell/glue2/.stack-work/install/x86_64-linux-tinfo6/lts-11.22/8.2.2/lib/x86_64-linux-ghc-8.2.2/jvm-0.4.2-LaSf7zoCHm445goZy5dTiM
Registering library for jvm-0.4.2..
