Configuring th-orphans-0.13.9...
Preprocessing library for th-orphans-0.13.9..
Building library for th-orphans-0.13.9..
[1 of 2] Compiling Language.Haskell.TH.Instances.Internal ( src/Language/Haskell/TH/Instances/Internal.hs, .stack-work/dist/x86_64-linux-nix/Cabal-2.4.0.1/build/Language/Haskell/TH/Instances/Internal.o )
[2 of 2] Compiling Language.Haskell.TH.Instances ( src/Language/Haskell/TH/Instances.hs, .stack-work/dist/x86_64-linux-nix/Cabal-2.4.0.1/build/Language/Haskell/TH/Instances.o )
Installing library in /home/tylerwbrown/.stack/snapshots/x86_64-linux-nix/lts-14.20/8.6.5/lib/x86_64-linux-ghc-8.6.5/th-orphans-0.13.9-4M7ueF4pAon6Yn82g4HyWB
Registering library for th-orphans-0.13.9..
